{
 "cards": [],
 "category": "Modules",
 "charts": [],
 "creation": "2020-07-21 05:19:04.693701",
 "developer_mode_only": 0,
 "disable_user_customization": 0,
 "docstatus": 0,
 "doctype": "Desk Page",
 "extends_another_page": 0,
 "hide_custom": 0,
 "idx": 0,
 "is_standard": 1,
 "label": "Monitor",
 "modified": "2020-07-21 05:21:55.670701",
 "modified_by": "chris@littlebunyip.com.au",
 "module": "Monitor",
 "name": "Monitor",
 "owner": "chris@littlebunyip.com.au",
 "pin_to_bottom": 0,
 "pin_to_top": 0,
 "shortcuts": []
}